################################
#...#..........#...............#
#..@...........#...............#
##.#####.............#........O#
#..............#.....#..O......#
##########..####.....###########
#......g.............#.........#
#....................#.........#
#...S............g...#.........#
#...........##########.........#
#..............................#
#...........g..................#
#.....################.........#
#..............................#
#.............................D#
################################
